{
	"data": [
		{"time":"2018.04.20 09:29:57"},{"time":"2018.05.20 09:29:57"}
	],
	"page":{"total":11,"pageSize":5,"pages":2,"pageNum":1}
}