{
    "message": "获取未读公告列表成功",
    "data": [{
    		"name":"深圳市前海拜特互联网金融服务有限公司",
			"content":"[还款提醒] 您有一笔20.00000.00元的贷款融资",
			"date":"2015-02-12",
			"time":"12:10",
            "id":1
    	},{
    		"name":"深圳市前海拜特互联网金融服务有限公司",
			"content":"[还款提醒] 您有一笔10.00000.00元的贷款融资",
			"date":"2015-02-12",
			"time":"11:10",
            "id":2
    	},{
            "name":"深圳市前海拜特互联网金融服务有限公司",
            "content":"[还款提醒] 您有一笔40.00000.00元的贷款融资",
            "date":"2015-03-12",
            "time":"11:20",
            "id":3
        }
        ],
    "page": {
        "pageNum": 1,
        "pageSize": 3,
        "pages": 3,
        "total": 32
    },
    "code": 200
}