{ "message": "代录申请 审核日志-列表查询 成功", 
	"data": [ { "id": 735, 
	"auditType": "1", 
	"businId": 708, 
	"auditItem": "", 
	"auditDate": "2016-08-04", 
	"auditTime": "19:00:06", 
	"result": "1", 
	"reason": "确认提交通过", 
	"businStatus": "0", 
	"lastStatus": "", 
	"custNo": 102200350,
	"stepName":0
	}, 
	{ 
	"id": 732, 
	"auditType": "1", 
	"businId": 708, 
	"auditItem": "", 
	"auditDate": "2016-08-04", 
	"auditTime": "18:59:49", 
	"result": "0", 
	"reason": "复核提交通过", 
	"businStatus": "0", 
	"lastStatus": "", 
	"custNo": 102200350,
	"stepName":1
	}, 
	{ 
	"id": 729, 
	"auditType": "1", 
	"businId": 708, 
	"auditItem": "", 
	"auditDate": "2016-08-04", 
	"auditTime": "18:59:34", 
	"result": "0", 
	"reason": "录入提交", 
	"businStatus": "0", 
	"lastStatus": "", 
	"custNo": 102200350,
	"stepName":2
	} ], 
	"page": { 
	"pageNum": 1, 
	"pageSize": 3, 
	"pages": 3, 
	"total": 9 }, 
	"code": 200 
}